parsing http://pochivki.xn----ctbrbbjzhptl1be6j.com/hotel.php?p=61669&c=2&g=221&h=8466&m=71853&cl=165

0 24
24 24
48 24
72 24
96 24
Array
(
    [0] => Array
        (
            [0] => Array
                (
                    [href] => http://pochivki.xn----ctbrbbjzhptl1be6j.com/reservation_poc.php?p=61669&cl=165&h=8466&m=71853&&ndate='16.04.2014&ncena=200+%EB%E2&ntab=%C2%FA%E7%F0+%E2+%E4%E2%EE%E9%ED%E0+%F1%F2%E0%FF+-+STANDARD+ROOM
                    [price] => 200 лв
                )

            [1] => Array
                (
                    [href] => http://pochivki.xn----ctbrbbjzhptl1be6j.com/reservation_poc.php?p=61669&cl=165&h=8466&m=71853&&ndate='16.04.2014&ncena=399+%EB%E2&ntab=2+%C2%FA%E7%F0+-+STANDARD+ROOM
                    [price] => 399 лв
                )

            [2] => Array
                (
                    [href] => http://pochivki.xn----ctbrbbjzhptl1be6j.com/reservation_poc.php?p=61669&cl=165&h=8466&m=71853&&ndate='16.04.2014&ncena=584+%EB%E2&ntab=3+%C2%FA%E7%F0+-+STANDARD+ROOM
                    [price] => 584 лв
                )

            [3] => Array
                (
                    [href] => http://pochivki.xn----ctbrbbjzhptl1be6j.com/reservation_poc.php?p=61669&cl=165&h=8466&m=71853&&ndate='16.04.2014&ncena=225+%EB%E2&ntab=1+%C2%FA%E7%F0+-+STANDARD+ROOM
                    [price] => 225 лв
                )

            [4] => Array
                (
                    [href] => http://pochivki.xn----ctbrbbjzhptl1be6j.com/reservation_poc.php?p=61669&cl=165&h=8466&m=71853&&ndate='16.04.2014&ncena=519+%EB%E2&ntab=2+%C2%FA%E7%F0%2B1+%C4%E5%F2%E5%280.00-1.99%29+-+STANDARD+ROOM
                    [price] => 519 лв
                )

            [5] => Array
                (
                    [href] => http://pochivki.xn----ctbrbbjzhptl1be6j.com/reservation_poc.php?p=61669&cl=165&h=8466&m=71853&&ndate='16.04.2014&ncena=639+%EB%E2&ntab=2+%C2%FA%E7%F0%2B1+%C4%E5%F2%E5%280.00-1.99%29%2B1+%C4%E5%F2%E5%282.00-6.99%29+-+STANDARD+ROOM
                    [price] => 639 лв
                )

            [6] => Array
                (
                    [href] => http://pochivki.xn----ctbrbbjzhptl1be6j.com/reservation_poc.php?p=61669&cl=165&h=8466&m=71853&&ndate='16.04.2014&ncena=678+%EB%E2&ntab=2+%C2%FA%E7%F0%2B1+%C4%E5%F2%E5%280.00-1.99%29%2B1+%C4%E5%F2%E5%287.00-12.99%29+-+STANDARD+ROOM
                    [price] => 678 лв
                )

            [7] => Array
                (
                    [href] => http://pochivki.xn----ctbrbbjzhptl1be6j.com/reservation_poc.php?p=61669&cl=165&h=8466&m=71853&&ndate='16.04.2014&ncena=519+%EB%E2&ntab=2+%C2%FA%E7%F0%2B1+%C4%E5%F2%E5%282.00-6.99%29+-+STANDARD+ROOM
                    [price] => 519 лв
                )

            [8] => Array
                (
                    [href] => http://pochivki.xn----ctbrbbjzhptl1be6j.com/reservation_poc.php?p=61669&cl=165&h=8466&m=71853&&ndate='16.04.2014&ncena=678+%EB%E2&ntab=2+%C2%FA%E7%F0%2B1+%C4%E5%F2%E5%282.00-6.99%29%2B1+%C4%E5%F2%E5%287.00-12.99%29+-+STANDARD+ROOM
                    [price] => 678 лв
                )

            [9] => Array
                (
                    [href] => http://pochivki.xn----ctbrbbjzhptl1be6j.com/reservation_poc.php?p=61669&cl=165&h=8466&m=71853&&ndate='16.04.2014&ncena=558+%EB%E2&ntab=2+%C2%FA%E7%F0%2B1+%C4%E5%F2%E5%287.00-12.99%29+-+STANDARD+ROOM
                    [price] => 558 лв
                )

            [10] => Array
                (
                    [href] => http://pochivki.xn----ctbrbbjzhptl1be6j.com/reservation_poc.php?p=61669&cl=165&h=8466&m=71853&&ndate='16.04.2014&ncena=639+%EB%E2&ntab=2+%C2%FA%E7%F0%2B2+%C4%E5%F6%E0%280.00-1.99%29+-+STANDARD+ROOM
                    [price] => 639 лв
                )

            [11] => Array
                (
                    [href] => http://pochivki.xn----ctbrbbjzhptl1be6j.com/reservation_poc.php?p=61669&cl=165&h=8466&m=71853&&ndate='16.04.2014&ncena=663+%EB%E2&ntab=2+%C2%FA%E7%F0%2B2+%C4%E5%F6%E0%282.00-6.99%29+-+STANDARD+ROOM
                    [price] => 663 лв
                )

            [12] => Array
                (
                    [href] => http://pochivki.xn----ctbrbbjzhptl1be6j.com/reservation_poc.php?p=61669&cl=165&h=8466&m=71853&&ndate='16.04.2014&ncena=718+%EB%E2&ntab=2+%C2%FA%E7%F0%2B2+%C4%E5%F6%E0%287.00-12.99%29+-+STANDARD+ROOM
                    [price] => 718 лв
                )

            [13] => Array
                (
                    [href] => http://pochivki.xn----ctbrbbjzhptl1be6j.com/reservation_poc.php?p=61669&cl=165&h=8466&m=71853&&ndate='16.04.2014&ncena=704+%EB%E2&ntab=3+%C2%FA%E7%F0%2B1+%C4%E5%F2%E5%280.00-1.99%29+-+STANDARD+ROOM
                    [price] => 704 лв
                )

            [14] => Array
                (
                    [href] => http://pochivki.xn----ctbrbbjzhptl1be6j.com/reservation_poc.php?p=61669&cl=165&h=8466&m=71853&&ndate='16.04.2014&ncena=704+%EB%E2&ntab=3+%C2%FA%E7%F0%2B1+%C4%E5%F2%E5%282.00-6.99%29+-+STANDARD+ROOM
                    [price] => 704 лв
                )

            [15] => Array
                (
                    [href] => http://pochivki.xn----ctbrbbjzhptl1be6j.com/reservation_poc.php?p=61669&cl=165&h=8466&m=71853&&ndate='16.04.2014&ncena=345+%EB%E2&ntab=1+%C2%FA%E7%F0%2B1+%C4%E5%F2%E5%280.00-1.99%29+-+STANDARD+ROOM
                    [price] => 345 лв
                )

            [16] => Array
                (
                    [href] => http://pochivki.xn----ctbrbbjzhptl1be6j.com/reservation_poc.php?p=61669&cl=165&h=8466&m=71853&&ndate='16.04.2014&ncena=465+%EB%E2&ntab=1+%C2%FA%E7%F0%2B1+%C4%E5%F2%E5%280.00-1.99%29%2B1+%C4%E5%F2%E5%282.00-6.99%29+-+STANDARD+ROOM
                    [price] => 465 лв
                )

            [17] => Array
                (
                    [href] => http://pochivki.xn----ctbrbbjzhptl1be6j.com/reservation_poc.php?p=61669&cl=165&h=8466&m=71853&&ndate='16.04.2014&ncena=504+%EB%E2&ntab=1+%C2%FA%E7%F0%2B1+%C4%E5%F2%E5%280.00-1.99%29%2B1+%C4%E5%F2%E5%287.00-12.99%29+-+STANDARD+ROOM
                    [price] => 504 лв
                )

            [18] => Array
                (
                    [href] => http://pochivki.xn----ctbrbbjzhptl1be6j.com/reservation_poc.php?p=61669&cl=165&h=8466&m=71853&&ndate='16.04.2014&ncena=345+%EB%E2&ntab=1+%C2%FA%E7%F0%2B1+%C4%E5%F2%E5%282.00-6.99%29+-+STANDARD+ROOM
                    [price] => 345 лв
                )

            [19] => Array
                (
                    [href] => http://pochivki.xn----ctbrbbjzhptl1be6j.com/reservation_poc.php?p=61669&cl=165&h=8466&m=71853&&ndate='16.04.2014&ncena=504+%EB%E2&ntab=1+%C2%FA%E7%F0%2B1+%C4%E5%F2%E5%282.00-6.99%29%2B1+%C4%E5%F2%E5%287.00-12.99%29+-+STANDARD+ROOM
                    [price] => 504 лв
                )

            [20] => Array
                (
                    [href] => http://pochivki.xn----ctbrbbjzhptl1be6j.com/reservation_poc.php?p=61669&cl=165&h=8466&m=71853&&ndate='16.04.2014&ncena=384+%EB%E2&ntab=1+%C2%FA%E7%F0%2B1+%C4%E5%F2%E5%287.00-12.99%29+-+STANDARD+ROOM
                    [price] => 384 лв
                )

            [21] => Array
                (
                    [href] => http://pochivki.xn----ctbrbbjzhptl1be6j.com/reservation_poc.php?p=61669&cl=165&h=8466&m=71853&&ndate='16.04.2014&ncena=465+%EB%E2&ntab=1+%C2%FA%E7%F0%2B2+%C4%E5%F6%E0%280.00-1.99%29+-+STANDARD+ROOM
                    [price] => 465 лв
                )

            [22] => Array
                (
                    [href] => http://pochivki.xn----ctbrbbjzhptl1be6j.com/reservation_poc.php?p=61669&cl=165&h=8466&m=71853&&ndate='16.04.2014&ncena=489+%EB%E2&ntab=1+%C2%FA%E7%F0%2B2+%C4%E5%F6%E0%282.00-6.99%29+-+STANDARD+ROOM
                    [price] => 489 лв
                )

            [23] => Array
                (
                    [href] => http://pochivki.xn----ctbrbbjzhptl1be6j.com/reservation_poc.php?p=61669&cl=165&h=8466&m=71853&&ndate='16.04.2014&ncena=543+%EB%E2&ntab=1+%C2%FA%E7%F0%2B2+%C4%E5%F6%E0%287.00-12.99%29+-+STANDARD+ROOM
                    [price] => 543 лв
                )

        )

    [1] => Array
        (
            [0] => Array
                (
                    [href] => http://pochivki.xn----ctbrbbjzhptl1be6j.com/reservation_poc.php?p=61669&cl=165&h=8466&m=71853&&ndate='30.04.2014&ncena=200+%EB%E2&ntab=%C2%FA%E7%F0+%E2+%E4%E2%EE%E9%ED%E0+%F1%F2%E0%FF+-+STANDARD+ROOM
                    [price] => 200 лв
                )

            [1] => Array
                (
                    [href] => http://pochivki.xn----ctbrbbjzhptl1be6j.com/reservation_poc.php?p=61669&cl=165&h=8466&m=71853&&ndate='30.04.2014&ncena=399+%EB%E2&ntab=2+%C2%FA%E7%F0+-+STANDARD+ROOM
                    [price] => 399 лв
                )

            [2] => Array
                (
                    [href] => http://pochivki.xn----ctbrbbjzhptl1be6j.com/reservation_poc.php?p=61669&cl=165&h=8466&m=71853&&ndate='30.04.2014&ncena=584+%EB%E2&ntab=3+%C2%FA%E7%F0+-+STANDARD+ROOM
                    [price] => 584 лв
                )

            [3] => Array
                (
                    [href] => http://pochivki.xn----ctbrbbjzhptl1be6j.com/reservation_poc.php?p=61669&cl=165&h=8466&m=71853&&ndate='30.04.2014&ncena=225+%EB%E2&ntab=1+%C2%FA%E7%F0+-+STANDARD+ROOM
                    [price] => 225 лв
                )

            [4] => Array
                (
                    [href] => http://pochivki.xn----ctbrbbjzhptl1be6j.com/reservation_poc.php?p=61669&cl=165&h=8466&m=71853&&ndate='30.04.2014&ncena=519+%EB%E2&ntab=2+%C2%FA%E7%F0%2B1+%C4%E5%F2%E5%280.00-1.99%29+-+STANDARD+ROOM
                    [price] => 519 лв
                )

            [5] => Array
                (
                    [href] => http://pochivki.xn----ctbrbbjzhptl1be6j.com/reservation_poc.php?p=61669&cl=165&h=8466&m=71853&&ndate='30.04.2014&ncena=639+%EB%E2&ntab=2+%C2%FA%E7%F0%2B1+%C4%E5%F2%E5%280.00-1.99%29%2B1+%C4%E5%F2%E5%282.00-6.99%29+-+STANDARD+ROOM
                    [price] => 639 лв
                )

            [6] => Array
                (
                    [href] => http://pochivki.xn----ctbrbbjzhptl1be6j.com/reservation_poc.php?p=61669&cl=165&h=8466&m=71853&&ndate='30.04.2014&ncena=678+%EB%E2&ntab=2+%C2%FA%E7%F0%2B1+%C4%E5%F2%E5%280.00-1.99%29%2B1+%C4%E5%F2%E5%287.00-12.99%29+-+STANDARD+ROOM
                    [price] => 678 лв
                )

            [7] => Array
                (
                    [href] => http://pochivki.xn----ctbrbbjzhptl1be6j.com/reservation_poc.php?p=61669&cl=165&h=8466&m=71853&&ndate='30.04.2014&ncena=519+%EB%E2&ntab=2+%C2%FA%E7%F0%2B1+%C4%E5%F2%E5%282.00-6.99%29+-+STANDARD+ROOM
                    [price] => 519 лв
                )

            [8] => Array
                (
                    [href] => http://pochivki.xn----ctbrbbjzhptl1be6j.com/reservation_poc.php?p=61669&cl=165&h=8466&m=71853&&ndate='30.04.2014&ncena=678+%EB%E2&ntab=2+%C2%FA%E7%F0%2B1+%C4%E5%F2%E5%282.00-6.99%29%2B1+%C4%E5%F2%E5%287.00-12.99%29+-+STANDARD+ROOM
                    [price] => 678 лв
                )

            [9] => Array
                (
                    [href] => http://pochivki.xn----ctbrbbjzhptl1be6j.com/reservation_poc.php?p=61669&cl=165&h=8466&m=71853&&ndate='30.04.2014&ncena=558+%EB%E2&ntab=2+%C2%FA%E7%F0%2B1+%C4%E5%F2%E5%287.00-12.99%29+-+STANDARD+ROOM
                    [price] => 558 лв
                )

            [10] => Array
                (
                    [href] => http://pochivki.xn----ctbrbbjzhptl1be6j.com/reservation_poc.php?p=61669&cl=165&h=8466&m=71853&&ndate='30.04.2014&ncena=639+%EB%E2&ntab=2+%C2%FA%E7%F0%2B2+%C4%E5%F6%E0%280.00-1.99%29+-+STANDARD+ROOM
                    [price] => 639 лв
                )

            [11] => Array
                (
                    [href] => http://pochivki.xn----ctbrbbjzhptl1be6j.com/reservation_poc.php?p=61669&cl=165&h=8466&m=71853&&ndate='30.04.2014&ncena=663+%EB%E2&ntab=2+%C2%FA%E7%F0%2B2+%C4%E5%F6%E0%282.00-6.99%29+-+STANDARD+ROOM
                    [price] => 663 лв
                )

            [12] => Array
                (
                    [href] => http://pochivki.xn----ctbrbbjzhptl1be6j.com/reservation_poc.php?p=61669&cl=165&h=8466&m=71853&&ndate='30.04.2014&ncena=718+%EB%E2&ntab=2+%C2%FA%E7%F0%2B2+%C4%E5%F6%E0%287.00-12.99%29+-+STANDARD+ROOM
                    [price] => 718 лв
                )

            [13] => Array
                (
                    [href] => http://pochivki.xn----ctbrbbjzhptl1be6j.com/reservation_poc.php?p=61669&cl=165&h=8466&m=71853&&ndate='30.04.2014&ncena=704+%EB%E2&ntab=3+%C2%FA%E7%F0%2B1+%C4%E5%F2%E5%280.00-1.99%29+-+STANDARD+ROOM
                    [price] => 704 лв
                )

            [14] => Array
                (
                    [href] => http://pochivki.xn----ctbrbbjzhptl1be6j.com/reservation_poc.php?p=61669&cl=165&h=8466&m=71853&&ndate='30.04.2014&ncena=704+%EB%E2&ntab=3+%C2%FA%E7%F0%2B1+%C4%E5%F2%E5%282.00-6.99%29+-+STANDARD+ROOM
                    [price] => 704 лв
                )

            [15] => Array
                (
                    [href] => http://pochivki.xn----ctbrbbjzhptl1be6j.com/reservation_poc.php?p=61669&cl=165&h=8466&m=71853&&ndate='30.04.2014&ncena=345+%EB%E2&ntab=1+%C2%FA%E7%F0%2B1+%C4%E5%F2%E5%280.00-1.99%29+-+STANDARD+ROOM
                    [price] => 345 лв
                )

            [16] => Array
                (
                    [href] => http://pochivki.xn----ctbrbbjzhptl1be6j.com/reservation_poc.php?p=61669&cl=165&h=8466&m=71853&&ndate='30.04.2014&ncena=465+%EB%E2&ntab=1+%C2%FA%E7%F0%2B1+%C4%E5%F2%E5%280.00-1.99%29%2B1+%C4%E5%F2%E5%282.00-6.99%29+-+STANDARD+ROOM
                    [price] => 465 лв
                )

            [17] => Array
                (
                    [href] => http://pochivki.xn----ctbrbbjzhptl1be6j.com/reservation_poc.php?p=61669&cl=165&h=8466&m=71853&&ndate='30.04.2014&ncena=504+%EB%E2&ntab=1+%C2%FA%E7%F0%2B1+%C4%E5%F2%E5%280.00-1.99%29%2B1+%C4%E5%F2%E5%287.00-12.99%29+-+STANDARD+ROOM
                    [price] => 504 лв
                )

            [18] => Array
                (
                    [href] => http://pochivki.xn----ctbrbbjzhptl1be6j.com/reservation_poc.php?p=61669&cl=165&h=8466&m=71853&&ndate='30.04.2014&ncena=345+%EB%E2&ntab=1+%C2%FA%E7%F0%2B1+%C4%E5%F2%E5%282.00-6.99%29+-+STANDARD+ROOM
                    [price] => 345 лв
                )

            [19] => Array
                (
                    [href] => http://pochivki.xn----ctbrbbjzhptl1be6j.com/reservation_poc.php?p=61669&cl=165&h=8466&m=71853&&ndate='30.04.2014&ncena=504+%EB%E2&ntab=1+%C2%FA%E7%F0%2B1+%C4%E5%F2%E5%282.00-6.99%29%2B1+%C4%E5%F2%E5%287.00-12.99%29+-+STANDARD+ROOM
                    [price] => 504 лв
                )

            [20] => Array
                (
                    [href] => http://pochivki.xn----ctbrbbjzhptl1be6j.com/reservation_poc.php?p=61669&cl=165&h=8466&m=71853&&ndate='30.04.2014&ncena=384+%EB%E2&ntab=1+%C2%FA%E7%F0%2B1+%C4%E5%F2%E5%287.00-12.99%29+-+STANDARD+ROOM
                    [price] => 384 лв
                )

            [21] => Array
                (
                    [href] => http://pochivki.xn----ctbrbbjzhptl1be6j.com/reservation_poc.php?p=61669&cl=165&h=8466&m=71853&&ndate='30.04.2014&ncena=465+%EB%E2&ntab=1+%C2%FA%E7%F0%2B2+%C4%E5%F6%E0%280.00-1.99%29+-+STANDARD+ROOM
                    [price] => 465 лв
                )

            [22] => Array
                (
                    [href] => http://pochivki.xn----ctbrbbjzhptl1be6j.com/reservation_poc.php?p=61669&cl=165&h=8466&m=71853&&ndate='30.04.2014&ncena=489+%EB%E2&ntab=1+%C2%FA%E7%F0%2B2+%C4%E5%F6%E0%282.00-6.99%29+-+STANDARD+ROOM
                    [price] => 489 лв
                )

            [23] => Array
                (
                    [href] => http://pochivki.xn----ctbrbbjzhptl1be6j.com/reservation_poc.php?p=61669&cl=165&h=8466&m=71853&&ndate='30.04.2014&ncena=543+%EB%E2&ntab=1+%C2%FA%E7%F0%2B2+%C4%E5%F6%E0%287.00-12.99%29+-+STANDARD+ROOM
                    [price] => 543 лв
                )

        )

    [2] => Array
        (
            [0] => Array
                (
                    [href] => http://pochivki.xn----ctbrbbjzhptl1be6j.com/reservation_poc.php?p=61669&cl=165&h=8466&m=71853&&ndate='23.05.2014&ncena=200+%EB%E2&ntab=%C2%FA%E7%F0+%E2+%E4%E2%EE%E9%ED%E0+%F1%F2%E0%FF+-+STANDARD+ROOM
                    [price] => 200 лв
                )

            [1] => Array
                (
                    [href] => http://pochivki.xn----ctbrbbjzhptl1be6j.com/reservation_poc.php?p=61669&cl=165&h=8466&m=71853&&ndate='23.05.2014&ncena=399+%EB%E2&ntab=2+%C2%FA%E7%F0+-+STANDARD+ROOM
                    [price] => 399 лв
                )

            [2] => Array
                (
                    [href] => http://pochivki.xn----ctbrbbjzhptl1be6j.com/reservation_poc.php?p=61669&cl=165&h=8466&m=71853&&ndate='23.05.2014&ncena=584+%EB%E2&ntab=3+%C2%FA%E7%F0+-+STANDARD+ROOM
                    [price] => 584 лв
                )

            [3] => Array
                (
                    [href] => http://pochivki.xn----ctbrbbjzhptl1be6j.com/reservation_poc.php?p=61669&cl=165&h=8466&m=71853&&ndate='23.05.2014&ncena=225+%EB%E2&ntab=1+%C2%FA%E7%F0+-+STANDARD+ROOM
                    [price] => 225 лв
                )

            [4] => Array
                (
                    [href] => http://pochivki.xn----ctbrbbjzhptl1be6j.com/reservation_poc.php?p=61669&cl=165&h=8466&m=71853&&ndate='23.05.2014&ncena=519+%EB%E2&ntab=2+%C2%FA%E7%F0%2B1+%C4%E5%F2%E5%280.00-1.99%29+-+STANDARD+ROOM
                    [price] => 519 лв
                )

            [5] => Array
                (
                    [href] => http://pochivki.xn----ctbrbbjzhptl1be6j.com/reservation_poc.php?p=61669&cl=165&h=8466&m=71853&&ndate='23.05.2014&ncena=639+%EB%E2&ntab=2+%C2%FA%E7%F0%2B1+%C4%E5%F2%E5%280.00-1.99%29%2B1+%C4%E5%F2%E5%282.00-6.99%29+-+STANDARD+ROOM
                    [price] => 639 лв
                )

            [6] => Array
                (
                    [href] => http://pochivki.xn----ctbrbbjzhptl1be6j.com/reservation_poc.php?p=61669&cl=165&h=8466&m=71853&&ndate='23.05.2014&ncena=678+%EB%E2&ntab=2+%C2%FA%E7%F0%2B1+%C4%E5%F2%E5%280.00-1.99%29%2B1+%C4%E5%F2%E5%287.00-12.99%29+-+STANDARD+ROOM
                    [price] => 678 лв
                )

            [7] => Array
                (
                    [href] => http://pochivki.xn----ctbrbbjzhptl1be6j.com/reservation_poc.php?p=61669&cl=165&h=8466&m=71853&&ndate='23.05.2014&ncena=519+%EB%E2&ntab=2+%C2%FA%E7%F0%2B1+%C4%E5%F2%E5%282.00-6.99%29+-+STANDARD+ROOM
                    [price] => 519 лв
                )

            [8] => Array
                (
                    [href] => http://pochivki.xn----ctbrbbjzhptl1be6j.com/reservation_poc.php?p=61669&cl=165&h=8466&m=71853&&ndate='23.05.2014&ncena=678+%EB%E2&ntab=2+%C2%FA%E7%F0%2B1+%C4%E5%F2%E5%282.00-6.99%29%2B1+%C4%E5%F2%E5%287.00-12.99%29+-+STANDARD+ROOM
                    [price] => 678 лв
                )

            [9] => Array
                (
                    [href] => http://pochivki.xn----ctbrbbjzhptl1be6j.com/reservation_poc.php?p=61669&cl=165&h=8466&m=71853&&ndate='23.05.2014&ncena=558+%EB%E2&ntab=2+%C2%FA%E7%F0%2B1+%C4%E5%F2%E5%287.00-12.99%29+-+STANDARD+ROOM
                    [price] => 558 лв
                )

            [10] => Array
                (
                    [href] => http://pochivki.xn----ctbrbbjzhptl1be6j.com/reservation_poc.php?p=61669&cl=165&h=8466&m=71853&&ndate='23.05.2014&ncena=639+%EB%E2&ntab=2+%C2%FA%E7%F0%2B2+%C4%E5%F6%E0%280.00-1.99%29+-+STANDARD+ROOM
                    [price] => 639 лв
                )

            [11] => Array
                (
                    [href] => http://pochivki.xn----ctbrbbjzhptl1be6j.com/reservation_poc.php?p=61669&cl=165&h=8466&m=71853&&ndate='23.05.2014&ncena=663+%EB%E2&ntab=2+%C2%FA%E7%F0%2B2+%C4%E5%F6%E0%282.00-6.99%29+-+STANDARD+ROOM
                    [price] => 663 лв
                )

            [12] => Array
                (
                    [href] => http://pochivki.xn----ctbrbbjzhptl1be6j.com/reservation_poc.php?p=61669&cl=165&h=8466&m=71853&&ndate='23.05.2014&ncena=718+%EB%E2&ntab=2+%C2%FA%E7%F0%2B2+%C4%E5%F6%E0%287.00-12.99%29+-+STANDARD+ROOM
                    [price] => 718 лв
                )

            [13] => Array
                (
                    [href] => http://pochivki.xn----ctbrbbjzhptl1be6j.com/reservation_poc.php?p=61669&cl=165&h=8466&m=71853&&ndate='23.05.2014&ncena=704+%EB%E2&ntab=3+%C2%FA%E7%F0%2B1+%C4%E5%F2%E5%280.00-1.99%29+-+STANDARD+ROOM
                    [price] => 704 лв
                )

            [14] => Array
                (
                    [href] => http://pochivki.xn----ctbrbbjzhptl1be6j.com/reservation_poc.php?p=61669&cl=165&h=8466&m=71853&&ndate='23.05.2014&ncena=704+%EB%E2&ntab=3+%C2%FA%E7%F0%2B1+%C4%E5%F2%E5%282.00-6.99%29+-+STANDARD+ROOM
                    [price] => 704 лв
                )

            [15] => Array
                (
                    [href] => http://pochivki.xn----ctbrbbjzhptl1be6j.com/reservation_poc.php?p=61669&cl=165&h=8466&m=71853&&ndate='23.05.2014&ncena=345+%EB%E2&ntab=1+%C2%FA%E7%F0%2B1+%C4%E5%F2%E5%280.00-1.99%29+-+STANDARD+ROOM
                    [price] => 345 лв
                )

            [16] => Array
                (
                    [href] => http://pochivki.xn----ctbrbbjzhptl1be6j.com/reservation_poc.php?p=61669&cl=165&h=8466&m=71853&&ndate='23.05.2014&ncena=465+%EB%E2&ntab=1+%C2%FA%E7%F0%2B1+%C4%E5%F2%E5%280.00-1.99%29%2B1+%C4%E5%F2%E5%282.00-6.99%29+-+STANDARD+ROOM
                    [price] => 465 лв
                )

            [17] => Array
                (
                    [href] => http://pochivki.xn----ctbrbbjzhptl1be6j.com/reservation_poc.php?p=61669&cl=165&h=8466&m=71853&&ndate='23.05.2014&ncena=504+%EB%E2&ntab=1+%C2%FA%E7%F0%2B1+%C4%E5%F2%E5%280.00-1.99%29%2B1+%C4%E5%F2%E5%287.00-12.99%29+-+STANDARD+ROOM
                    [price] => 504 лв
                )

            [18] => Array
                (
                    [href] => http://pochivki.xn----ctbrbbjzhptl1be6j.com/reservation_poc.php?p=61669&cl=165&h=8466&m=71853&&ndate='23.05.2014&ncena=345+%EB%E2&ntab=1+%C2%FA%E7%F0%2B1+%C4%E5%F2%E5%282.00-6.99%29+-+STANDARD+ROOM
                    [price] => 345 лв
                )

            [19] => Array
                (
                    [href] => http://pochivki.xn----ctbrbbjzhptl1be6j.com/reservation_poc.php?p=61669&cl=165&h=8466&m=71853&&ndate='23.05.2014&ncena=504+%EB%E2&ntab=1+%C2%FA%E7%F0%2B1+%C4%E5%F2%E5%282.00-6.99%29%2B1+%C4%E5%F2%E5%287.00-12.99%29+-+STANDARD+ROOM
                    [price] => 504 лв
                )

            [20] => Array
                (
                    [href] => http://pochivki.xn----ctbrbbjzhptl1be6j.com/reservation_poc.php?p=61669&cl=165&h=8466&m=71853&&ndate='23.05.2014&ncena=384+%EB%E2&ntab=1+%C2%FA%E7%F0%2B1+%C4%E5%F2%E5%287.00-12.99%29+-+STANDARD+ROOM
                    [price] => 384 лв
                )

            [21] => Array
                (
                    [href] => http://pochivki.xn----ctbrbbjzhptl1be6j.com/reservation_poc.php?p=61669&cl=165&h=8466&m=71853&&ndate='23.05.2014&ncena=465+%EB%E2&ntab=1+%C2%FA%E7%F0%2B2+%C4%E5%F6%E0%280.00-1.99%29+-+STANDARD+ROOM
                    [price] => 465 лв
                )

            [22] => Array
                (
                    [href] => http://pochivki.xn----ctbrbbjzhptl1be6j.com/reservation_poc.php?p=61669&cl=165&h=8466&m=71853&&ndate='23.05.2014&ncena=489+%EB%E2&ntab=1+%C2%FA%E7%F0%2B2+%C4%E5%F6%E0%282.00-6.99%29+-+STANDARD+ROOM
                    [price] => 489 лв
                )

            [23] => Array
                (
                    [href] => http://pochivki.xn----ctbrbbjzhptl1be6j.com/reservation_poc.php?p=61669&cl=165&h=8466&m=71853&&ndate='23.05.2014&ncena=543+%EB%E2&ntab=1+%C2%FA%E7%F0%2B2+%C4%E5%F6%E0%287.00-12.99%29+-+STANDARD+ROOM
                    [price] => 543 лв
                )

        )

    [3] => Array
        (
            [0] => Array
                (
                    [href] => http://pochivki.xn----ctbrbbjzhptl1be6j.com/reservation_poc.php?p=61669&cl=165&h=8466&m=71853&&ndate='27.05.2014&ncena=200+%EB%E2&ntab=%C2%FA%E7%F0+%E2+%E4%E2%EE%E9%ED%E0+%F1%F2%E0%FF+-+STANDARD+ROOM
                    [price] => 200 лв
                )

            [1] => Array
                (
                    [href] => http://pochivki.xn----ctbrbbjzhptl1be6j.com/reservation_poc.php?p=61669&cl=165&h=8466&m=71853&&ndate='27.05.2014&ncena=399+%EB%E2&ntab=2+%C2%FA%E7%F0+-+STANDARD+ROOM
                    [price] => 399 лв
                )

            [2] => Array
                (
                    [href] => http://pochivki.xn----ctbrbbjzhptl1be6j.com/reservation_poc.php?p=61669&cl=165&h=8466&m=71853&&ndate='27.05.2014&ncena=584+%EB%E2&ntab=3+%C2%FA%E7%F0+-+STANDARD+ROOM
                    [price] => 584 лв
                )

            [3] => Array
                (
                    [href] => http://pochivki.xn----ctbrbbjzhptl1be6j.com/reservation_poc.php?p=61669&cl=165&h=8466&m=71853&&ndate='27.05.2014&ncena=225+%EB%E2&ntab=1+%C2%FA%E7%F0+-+STANDARD+ROOM
                    [price] => 225 лв
                )

            [4] => Array
                (
                    [href] => http://pochivki.xn----ctbrbbjzhptl1be6j.com/reservation_poc.php?p=61669&cl=165&h=8466&m=71853&&ndate='27.05.2014&ncena=519+%EB%E2&ntab=2+%C2%FA%E7%F0%2B1+%C4%E5%F2%E5%280.00-1.99%29+-+STANDARD+ROOM
                    [price] => 519 лв
                )

            [5] => Array
                (
                    [href] => http://pochivki.xn----ctbrbbjzhptl1be6j.com/reservation_poc.php?p=61669&cl=165&h=8466&m=71853&&ndate='27.05.2014&ncena=639+%EB%E2&ntab=2+%C2%FA%E7%F0%2B1+%C4%E5%F2%E5%280.00-1.99%29%2B1+%C4%E5%F2%E5%282.00-6.99%29+-+STANDARD+ROOM
                    [price] => 639 лв
                )

            [6] => Array
                (
                    [href] => http://pochivki.xn----ctbrbbjzhptl1be6j.com/reservation_poc.php?p=61669&cl=165&h=8466&m=71853&&ndate='27.05.2014&ncena=678+%EB%E2&ntab=2+%C2%FA%E7%F0%2B1+%C4%E5%F2%E5%280.00-1.99%29%2B1+%C4%E5%F2%E5%287.00-12.99%29+-+STANDARD+ROOM
                    [price] => 678 лв
                )

            [7] => Array
                (
                    [href] => http://pochivki.xn----ctbrbbjzhptl1be6j.com/reservation_poc.php?p=61669&cl=165&h=8466&m=71853&&ndate='27.05.2014&ncena=519+%EB%E2&ntab=2+%C2%FA%E7%F0%2B1+%C4%E5%F2%E5%282.00-6.99%29+-+STANDARD+ROOM
                    [price] => 519 лв
                )

            [8] => Array
                (
                    [href] => http://pochivki.xn----ctbrbbjzhptl1be6j.com/reservation_poc.php?p=61669&cl=165&h=8466&m=71853&&ndate='27.05.2014&ncena=678+%EB%E2&ntab=2+%C2%FA%E7%F0%2B1+%C4%E5%F2%E5%282.00-6.99%29%2B1+%C4%E5%F2%E5%287.00-12.99%29+-+STANDARD+ROOM
                    [price] => 678 лв
                )

            [9] => Array
                (
                    [href] => http://pochivki.xn----ctbrbbjzhptl1be6j.com/reservation_poc.php?p=61669&cl=165&h=8466&m=71853&&ndate='27.05.2014&ncena=558+%EB%E2&ntab=2+%C2%FA%E7%F0%2B1+%C4%E5%F2%E5%287.00-12.99%29+-+STANDARD+ROOM
                    [price] => 558 лв
                )

            [10] => Array
                (
                    [href] => http://pochivki.xn----ctbrbbjzhptl1be6j.com/reservation_poc.php?p=61669&cl=165&h=8466&m=71853&&ndate='27.05.2014&ncena=639+%EB%E2&ntab=2+%C2%FA%E7%F0%2B2+%C4%E5%F6%E0%280.00-1.99%29+-+STANDARD+ROOM
                    [price] => 639 лв
                )

            [11] => Array
                (
                    [href] => http://pochivki.xn----ctbrbbjzhptl1be6j.com/reservation_poc.php?p=61669&cl=165&h=8466&m=71853&&ndate='27.05.2014&ncena=663+%EB%E2&ntab=2+%C2%FA%E7%F0%2B2+%C4%E5%F6%E0%282.00-6.99%29+-+STANDARD+ROOM
                    [price] => 663 лв
                )

            [12] => Array
                (
                    [href] => http://pochivki.xn----ctbrbbjzhptl1be6j.com/reservation_poc.php?p=61669&cl=165&h=8466&m=71853&&ndate='27.05.2014&ncena=718+%EB%E2&ntab=2+%C2%FA%E7%F0%2B2+%C4%E5%F6%E0%287.00-12.99%29+-+STANDARD+ROOM
                    [price] => 718 лв
                )

            [13] => Array
                (
                    [href] => http://pochivki.xn----ctbrbbjzhptl1be6j.com/reservation_poc.php?p=61669&cl=165&h=8466&m=71853&&ndate='27.05.2014&ncena=704+%EB%E2&ntab=3+%C2%FA%E7%F0%2B1+%C4%E5%F2%E5%280.00-1.99%29+-+STANDARD+ROOM
                    [price] => 704 лв
                )

            [14] => Array
                (
                    [href] => http://pochivki.xn----ctbrbbjzhptl1be6j.com/reservation_poc.php?p=61669&cl=165&h=8466&m=71853&&ndate='27.05.2014&ncena=704+%EB%E2&ntab=3+%C2%FA%E7%F0%2B1+%C4%E5%F2%E5%282.00-6.99%29+-+STANDARD+ROOM
                    [price] => 704 лв
                )

            [15] => Array
                (
                    [href] => http://pochivki.xn----ctbrbbjzhptl1be6j.com/reservation_poc.php?p=61669&cl=165&h=8466&m=71853&&ndate='27.05.2014&ncena=345+%EB%E2&ntab=1+%C2%FA%E7%F0%2B1+%C4%E5%F2%E5%280.00-1.99%29+-+STANDARD+ROOM
                    [price] => 345 лв
                )

            [16] => Array
                (
                    [href] => http://pochivki.xn----ctbrbbjzhptl1be6j.com/reservation_poc.php?p=61669&cl=165&h=8466&m=71853&&ndate='27.05.2014&ncena=465+%EB%E2&ntab=1+%C2%FA%E7%F0%2B1+%C4%E5%F2%E5%280.00-1.99%29%2B1+%C4%E5%F2%E5%282.00-6.99%29+-+STANDARD+ROOM
                    [price] => 465 лв
                )

            [17] => Array
                (
                    [href] => http://pochivki.xn----ctbrbbjzhptl1be6j.com/reservation_poc.php?p=61669&cl=165&h=8466&m=71853&&ndate='27.05.2014&ncena=504+%EB%E2&ntab=1+%C2%FA%E7%F0%2B1+%C4%E5%F2%E5%280.00-1.99%29%2B1+%C4%E5%F2%E5%287.00-12.99%29+-+STANDARD+ROOM
                    [price] => 504 лв
                )

            [18] => Array
                (
                    [href] => http://pochivki.xn----ctbrbbjzhptl1be6j.com/reservation_poc.php?p=61669&cl=165&h=8466&m=71853&&ndate='27.05.2014&ncena=345+%EB%E2&ntab=1+%C2%FA%E7%F0%2B1+%C4%E5%F2%E5%282.00-6.99%29+-+STANDARD+ROOM
                    [price] => 345 лв
                )

            [19] => Array
                (
                    [href] => http://pochivki.xn----ctbrbbjzhptl1be6j.com/reservation_poc.php?p=61669&cl=165&h=8466&m=71853&&ndate='27.05.2014&ncena=504+%EB%E2&ntab=1+%C2%FA%E7%F0%2B1+%C4%E5%F2%E5%282.00-6.99%29%2B1+%C4%E5%F2%E5%287.00-12.99%29+-+STANDARD+ROOM
                    [price] => 504 лв
                )

            [20] => Array
                (
                    [href] => http://pochivki.xn----ctbrbbjzhptl1be6j.com/reservation_poc.php?p=61669&cl=165&h=8466&m=71853&&ndate='27.05.2014&ncena=384+%EB%E2&ntab=1+%C2%FA%E7%F0%2B1+%C4%E5%F2%E5%287.00-12.99%29+-+STANDARD+ROOM
                    [price] => 384 лв
                )

            [21] => Array
                (
                    [href] => http://pochivki.xn----ctbrbbjzhptl1be6j.com/reservation_poc.php?p=61669&cl=165&h=8466&m=71853&&ndate='27.05.2014&ncena=465+%EB%E2&ntab=1+%C2%FA%E7%F0%2B2+%C4%E5%F6%E0%280.00-1.99%29+-+STANDARD+ROOM
                    [price] => 465 лв
                )

            [22] => Array
                (
                    [href] => http://pochivki.xn----ctbrbbjzhptl1be6j.com/reservation_poc.php?p=61669&cl=165&h=8466&m=71853&&ndate='27.05.2014&ncena=489+%EB%E2&ntab=1+%C2%FA%E7%F0%2B2+%C4%E5%F6%E0%282.00-6.99%29+-+STANDARD+ROOM
                    [price] => 489 лв
                )

            [23] => Array
                (
                    [href] => http://pochivki.xn----ctbrbbjzhptl1be6j.com/reservation_poc.php?p=61669&cl=165&h=8466&m=71853&&ndate='27.05.2014&ncena=543+%EB%E2&ntab=1+%C2%FA%E7%F0%2B2+%C4%E5%F6%E0%287.00-12.99%29+-+STANDARD+ROOM
                    [price] => 543 лв
                )

        )

    [4] => Array
        (
            [0] => Array
                (
                    [href] => http://pochivki.xn----ctbrbbjzhptl1be6j.com/reservation_poc.php?p=61669&cl=165&h=8466&m=71853&&ndate='25.08.2014&ncena=249+%EB%E2&ntab=%C2%FA%E7%F0+%E2+%E4%E2%EE%E9%ED%E0+%F1%F2%E0%FF+-+STANDARD+ROOM
                    [price] => 249 лв
                )

            [1] => Array
                (
                    [href] => http://pochivki.xn----ctbrbbjzhptl1be6j.com/reservation_poc.php?p=61669&cl=165&h=8466&m=71853&&ndate='25.08.2014&ncena=498+%EB%E2&ntab=2+%C2%FA%E7%F0+-+STANDARD+ROOM
                    [price] => 498 лв
                )

            [2] => Array
                (
                    [href] => http://pochivki.xn----ctbrbbjzhptl1be6j.com/reservation_poc.php?p=61669&cl=165&h=8466&m=71853&&ndate='25.08.2014&ncena=717+%EB%E2&ntab=3+%C2%FA%E7%F0+-+STANDARD+ROOM
                    [price] => 717 лв
                )

            [3] => Array
                (
                    [href] => http://pochivki.xn----ctbrbbjzhptl1be6j.com/reservation_poc.php?p=61669&cl=165&h=8466&m=71853&&ndate='25.08.2014&ncena=299+%EB%E2&ntab=1+%C2%FA%E7%F0+-+STANDARD+ROOM
                    [price] => 299 лв
                )

            [4] => Array
                (
                    [href] => http://pochivki.xn----ctbrbbjzhptl1be6j.com/reservation_poc.php?p=61669&cl=165&h=8466&m=71853&&ndate='25.08.2014&ncena=618+%EB%E2&ntab=2+%C2%FA%E7%F0%2B1+%C4%E5%F2%E5%280.00-1.99%29+-+STANDARD+ROOM
                    [price] => 618 лв
                )

            [5] => Array
                (
                    [href] => http://pochivki.xn----ctbrbbjzhptl1be6j.com/reservation_poc.php?p=61669&cl=165&h=8466&m=71853&&ndate='25.08.2014&ncena=738+%EB%E2&ntab=2+%C2%FA%E7%F0%2B1+%C4%E5%F2%E5%280.00-1.99%29%2B1+%C4%E5%F2%E5%282.00-6.99%29+-+STANDARD+ROOM
                    [price] => 738 лв
                )

            [6] => Array
                (
                    [href] => http://pochivki.xn----ctbrbbjzhptl1be6j.com/reservation_poc.php?p=61669&cl=165&h=8466&m=71853&&ndate='25.08.2014&ncena=803+%EB%E2&ntab=2+%C2%FA%E7%F0%2B1+%C4%E5%F2%E5%280.00-1.99%29%2B1+%C4%E5%F2%E5%287.00-12.99%29+-+STANDARD+ROOM
                    [price] => 803 лв
                )

            [7] => Array
                (
                    [href] => http://pochivki.xn----ctbrbbjzhptl1be6j.com/reservation_poc.php?p=61669&cl=165&h=8466&m=71853&&ndate='25.08.2014&ncena=618+%EB%E2&ntab=2+%C2%FA%E7%F0%2B1+%C4%E5%F2%E5%282.00-6.99%29+-+STANDARD+ROOM
                    [price] => 618 лв
                )

            [8] => Array
                (
                    [href] => http://pochivki.xn----ctbrbbjzhptl1be6j.com/reservation_poc.php?p=61669&cl=165&h=8466&m=71853&&ndate='25.08.2014&ncena=803+%EB%E2&ntab=2+%C2%FA%E7%F0%2B1+%C4%E5%F2%E5%282.00-6.99%29%2B1+%C4%E5%F2%E5%287.00-12.99%29+-+STANDARD+ROOM
                    [price] => 803 лв
                )

            [9] => Array
                (
                    [href] => http://pochivki.xn----ctbrbbjzhptl1be6j.com/reservation_poc.php?p=61669&cl=165&h=8466&m=71853&&ndate='25.08.2014&ncena=683+%EB%E2&ntab=2+%C2%FA%E7%F0%2B1+%C4%E5%F2%E5%287.00-12.99%29+-+STANDARD+ROOM
                    [price] => 683 лв
                )

            [10] => Array
                (
                    [href] => http://pochivki.xn----ctbrbbjzhptl1be6j.com/reservation_poc.php?p=61669&cl=165&h=8466&m=71853&&ndate='25.08.2014&ncena=738+%EB%E2&ntab=2+%C2%FA%E7%F0%2B2+%C4%E5%F6%E0%280.00-1.99%29+-+STANDARD+ROOM
                    [price] => 738 лв
                )

            [11] => Array
                (
                    [href] => http://pochivki.xn----ctbrbbjzhptl1be6j.com/reservation_poc.php?p=61669&cl=165&h=8466&m=71853&&ndate='25.08.2014&ncena=788+%EB%E2&ntab=2+%C2%FA%E7%F0%2B2+%C4%E5%F6%E0%282.00-6.99%29+-+STANDARD+ROOM
                    [price] => 788 лв
                )

            [12] => Array
                (
                    [href] => http://pochivki.xn----ctbrbbjzhptl1be6j.com/reservation_poc.php?p=61669&cl=165&h=8466&m=71853&&ndate='25.08.2014&ncena=867+%EB%E2&ntab=2+%C2%FA%E7%F0%2B2+%C4%E5%F6%E0%287.00-12.99%29+-+STANDARD+ROOM
                    [price] => 867 лв
                )

            [13] => Array
                (
                    [href] => http://pochivki.xn----ctbrbbjzhptl1be6j.com/reservation_poc.php?p=61669&cl=165&h=8466&m=71853&&ndate='25.08.2014&ncena=837+%EB%E2&ntab=3+%C2%FA%E7%F0%2B1+%C4%E5%F2%E5%280.00-1.99%29+-+STANDARD+ROOM
                    [price] => 837 лв
                )

            [14] => Array
                (
                    [href] => http://pochivki.xn----ctbrbbjzhptl1be6j.com/reservation_poc.php?p=61669&cl=165&h=8466&m=71853&&ndate='25.08.2014&ncena=837+%EB%E2&ntab=3+%C2%FA%E7%F0%2B1+%C4%E5%F2%E5%282.00-6.99%29+-+STANDARD+ROOM
                    [price] => 837 лв
                )

            [15] => Array
                (
                    [href] => http://pochivki.xn----ctbrbbjzhptl1be6j.com/reservation_poc.php?p=61669&cl=165&h=8466&m=71853&&ndate='25.08.2014&ncena=419+%EB%E2&ntab=1+%C2%FA%E7%F0%2B1+%C4%E5%F2%E5%280.00-1.99%29+-+STANDARD+ROOM
                    [price] => 419 лв
                )

            [16] => Array
                (
                    [href] => http://pochivki.xn----ctbrbbjzhptl1be6j.com/reservation_poc.php?p=61669&cl=165&h=8466&m=71853&&ndate='25.08.2014&ncena=539+%EB%E2&ntab=1+%C2%FA%E7%F0%2B1+%C4%E5%F2%E5%280.00-1.99%29%2B1+%C4%E5%F2%E5%282.00-6.99%29+-+STANDARD+ROOM
                    [price] => 539 лв
                )

            [17] => Array
                (
                    [href] => http://pochivki.xn----ctbrbbjzhptl1be6j.com/reservation_poc.php?p=61669&cl=165&h=8466&m=71853&&ndate='25.08.2014&ncena=603+%EB%E2&ntab=1+%C2%FA%E7%F0%2B1+%C4%E5%F2%E5%280.00-1.99%29%2B1+%C4%E5%F2%E5%287.00-12.99%29+-+STANDARD+ROOM
                    [price] => 603 лв
                )

            [18] => Array
                (
                    [href] => http://pochivki.xn----ctbrbbjzhptl1be6j.com/reservation_poc.php?p=61669&cl=165&h=8466&m=71853&&ndate='25.08.2014&ncena=419+%EB%E2&ntab=1+%C2%FA%E7%F0%2B1+%C4%E5%F2%E5%282.00-6.99%29+-+STANDARD+ROOM
                    [price] => 419 лв
                )

            [19] => Array
                (
                    [href] => http://pochivki.xn----ctbrbbjzhptl1be6j.com/reservation_poc.php?p=61669&cl=165&h=8466&m=71853&&ndate='25.08.2014&ncena=603+%EB%E2&ntab=1+%C2%FA%E7%F0%2B1+%C4%E5%F2%E5%282.00-6.99%29%2B1+%C4%E5%F2%E5%287.00-12.99%29+-+STANDARD+ROOM
                    [price] => 603 лв
                )

            [20] => Array
                (
                    [href] => http://pochivki.xn----ctbrbbjzhptl1be6j.com/reservation_poc.php?p=61669&cl=165&h=8466&m=71853&&ndate='25.08.2014&ncena=483+%EB%E2&ntab=1+%C2%FA%E7%F0%2B1+%C4%E5%F2%E5%287.00-12.99%29+-+STANDARD+ROOM
                    [price] => 483 лв
                )

            [21] => Array
                (
                    [href] => http://pochivki.xn----ctbrbbjzhptl1be6j.com/reservation_poc.php?p=61669&cl=165&h=8466&m=71853&&ndate='25.08.2014&ncena=539+%EB%E2&ntab=1+%C2%FA%E7%F0%2B2+%C4%E5%F6%E0%280.00-1.99%29+-+STANDARD+ROOM
                    [price] => 539 лв
                )

            [22] => Array
                (
                    [href] => http://pochivki.xn----ctbrbbjzhptl1be6j.com/reservation_poc.php?p=61669&cl=165&h=8466&m=71853&&ndate='25.08.2014&ncena=588+%EB%E2&ntab=1+%C2%FA%E7%F0%2B2+%C4%E5%F6%E0%282.00-6.99%29+-+STANDARD+ROOM
                    [price] => 588 лв
                )

            [23] => Array
                (
                    [href] => http://pochivki.xn----ctbrbbjzhptl1be6j.com/reservation_poc.php?p=61669&cl=165&h=8466&m=71853&&ndate='25.08.2014&ncena=668+%EB%E2&ntab=1+%C2%FA%E7%F0%2B2+%C4%E5%F6%E0%287.00-12.99%29+-+STANDARD+ROOM
                    [price] => 668 лв
                )

        )

)
